{
  "version": "2.0",
  "licenses": [
    {
      "id": "Apache-2.0",
      "name": "Apache License 2.0",
      "url": "https://opensource.org/licenses/Apache-2.0",
      "count": 20
    },
    {
      "id": "cddl + gplv2 with classpath exception",
      "name": "CDDL + GPLv2 with classpath exception",
      "url": "",
      "count": 2
    },
    {
      "id": "MIT",
      "name": "MIT License",
      "url": "https://opensource.org/licenses/MIT",
      "count": 2
    },
    {
      "id": "bsd",
      "name": "BSD",
      "url": "http://en.wikipedia.org/wiki/BSD_licenses",
      "count": 1
    },
    {
      "id": "LGPL-2.1",
      "name": "GNU Lesser General Public License v2.1 only",
      "url": "https://opensource.org/licenses/LGPL-2.1",
      "count": 1
    },
    {
      "id": "MPL-2.0",
      "name": "Mozilla Public License 2.0",
      "url": "https://opensource.org/licenses/MPL-2.0",
      "count": 1
    }
  ],
  "dependencies": [
    {
      "name": "antlr",
      "url": "",
      "description": "",
      "paths": [
        "."
      ],
      "licenses": [
        "bsd"
      ]
    },
    {
      "name": "commons-beanutils",
      "url": "",
      "description": "",
      "paths": [
        "."
      ],
      "licenses": [
        "Apache-2.0"
      ]
    },
    {
      "name": "commons-io",
      "url": "",
      "description": "",
      "paths": [
        "."
      ],
      "licenses": [
        "Apache-2.0"
      ]
    },
    {
      "name": "commons-lang",
      "url": "",
      "description": "",
      "paths": [
        "."
      ],
      "licenses": [
        "Apache-2.0"
      ]
    },
    {
      "name": "commons-lang3",
      "url": "",
      "description": "",
      "paths": [
        "."
      ],
      "licenses": [
        "Apache-2.0"
      ]
    },
    {
      "name": "fastutil",
      "url": "",
      "description": "",
      "paths": [
        "."
      ],
      "licenses": [
        "Apache-2.0"
      ]
    },
    {
      "name": "findbugs-annotations",
      "url": "",
      "description": "",
      "paths": [
        "."
      ],
      "licenses": [
        "Apache-2.0"
      ]
    },
    {
      "name": "geode-common",
      "url": "",
      "description": "",
      "paths": [
        "."
      ],
      "licenses": [
        "Apache-2.0"
      ]
    },
    {
      "name": "geode-core",
      "url": "",
      "description": "",
      "paths": [
        "."
      ],
      "licenses": [
        "Apache-2.0"
      ]
    },
    {
      "name": "geode-json",
      "url": "",
      "description": "",
      "paths": [
        "."
      ],
      "licenses": [
        "Apache-2.0"
      ]
    },
    {
      "name": "jackson-annotations",
      "url": "",
      "description": "",
      "paths": [
        "."
      ],
      "licenses": [
        "Apache-2.0"
      ]
    },
    {
      "name": "jackson-core",
      "url": "",
      "description": "",
      "paths": [
        "."
      ],
      "licenses": [
        "Apache-2.0"
      ]
    },
    {
      "name": "jackson-databind",
      "url": "",
      "description": "",
      "paths": [
        "."
      ],
      "licenses": [
        "Apache-2.0"
      ]
    },
    {
      "name": "javax.resource-api",
      "url": "",
      "description": "",
      "paths": [
        "."
      ],
      "licenses": [
        "cddl + gplv2 with classpath exception"
      ]
    },
    {
      "name": "javax.transaction-api",
      "url": "",
      "description": "",
      "paths": [
        "."
      ],
      "licenses": [
        "cddl + gplv2 with classpath exception"
      ]
    },
    {
      "name": "jgroups",
      "url": "",
      "description": "",
      "paths": [
        "."
      ],
      "licenses": [
        "Apache-2.0"
      ]
    },
    {
      "name": "jna",
      "url": "",
      "description": "",
      "paths": [
        "."
      ],
      "licenses": [
        "Apache-2.0",
        "LGPL-2.1"
      ]
    },
    {
      "name": "jopt-simple",
      "url": "",
      "description": "",
      "paths": [
        "."
      ],
      "licenses": [
        "MIT"
      ]
    },
    {
      "name": "log4j-api",
      "url": "",
      "description": "",
      "paths": [
        "."
      ],
      "licenses": [
        "Apache-2.0"
      ]
    },
    {
      "name": "log4j-core",
      "url": "",
      "description": "",
      "paths": [
        "."
      ],
      "licenses": [
        "Apache-2.0"
      ]
    },
    {
      "name": "maven-artifact",
      "url": "",
      "description": "",
      "paths": [
        "."
      ],
      "licenses": [
        "Apache-2.0"
      ]
    },
    {
      "name": "netty",
      "url": "",
      "description": "",
      "paths": [
        "."
      ],
      "licenses": [
        "Apache-2.0"
      ]
    },
    {
      "name": "plexus-utils",
      "url": "",
      "description": "",
      "paths": [
        "."
      ],
      "licenses": [
        "Apache-2.0"
      ]
    },
    {
      "name": "rhino",
      "url": "",
      "description": "",
      "paths": [
        "."
      ],
      "licenses": [
        "MPL-2.0"
      ]
    },
    {
      "name": "shiro-core",
      "url": "",
      "description": "",
      "paths": [
        "."
      ],
      "licenses": [
        "Apache-2.0"
      ]
    },
    {
      "name": "slf4j-api",
      "url": "",
      "description": "",
      "paths": [
        "."
      ],
      "licenses": [
        "MIT"
      ]
    }
  ]
}
