{
  "version": "2.1",
  "licenses": [
    {
      "id": "Apache-2.0",
      "name": "Apache License 2.0",
      "url": "https://opensource.org/licenses/Apache-2.0"
    },
    {
      "id": "BSD-2-Clause",
      "name": "BSD 2-Clause \"Simplified\" License",
      "url": "https://opensource.org/licenses/BSD-2-Clause"
    },
    {
      "id": "BSD-3-Clause",
      "name": "BSD 3-Clause \"New\" or \"Revised\" License",
      "url": "https://opensource.org/licenses/BSD-3-Clause"
    },
    {
      "id": "ISC",
      "name": "ISC License",
      "url": "https://opensource.org/licenses/ISC"
    },
    {
      "id": "MIT",
      "name": "MIT License",
      "url": "https://opensource.org/licenses/MIT"
    },
    {
      "id": "unknown",
      "name": "unknown",
      "url": ""
    }
  ],
  "dependencies": [
    {
      "name": "cli",
      "version": "6.14.8",
      "package_manager": "bower",
      "path": "bower.json",
      "licenses": [
        "Apache-2.0",
        "BSD-2-Clause",
        "BSD-3-Clause",
        "ISC",
        "MIT"
      ]
    },
    {
      "name": "debug",
      "version": "*",
      "package_manager": "bower",
      "path": "bower.json",
      "licenses": [
        "unknown"
      ]
    },
    {
      "name": "ev-emitter",
      "version": "1.1.1",
      "package_manager": "bower",
      "path": "bower.json",
      "licenses": [
        "MIT"
      ]
    },
    {
      "name": "fizzy-ui-utils",
      "version": "2.0.7",
      "package_manager": "bower",
      "path": "bower.json",
      "licenses": [
        "MIT"
      ]
    },
    {
      "name": "get-size",
      "version": "2.0.3",
      "package_manager": "bower",
      "path": "bower.json",
      "licenses": [
        "MIT"
      ]
    },
    {
      "name": "jquery",
      "version": "3.5.1",
      "package_manager": "bower",
      "path": "bower.json",
      "licenses": [
        "MIT"
      ]
    },
    {
      "name": "js-bower",
      "version": "*",
      "package_manager": "bower",
      "path": "bower.json",
      "licenses": [
        "ISC"
      ]
    },
    {
      "name": "masonry-layout",
      "version": "4.2.2",
      "package_manager": "bower",
      "path": "bower.json",
      "licenses": [
        "MIT"
      ]
    },
    {
      "name": "matches-selector",
      "version": "2.0.2",
      "package_manager": "bower",
      "path": "bower.json",
      "licenses": [
        "MIT"
      ]
    },
    {
      "name": "outlayer",
      "version": "2.1.1",
      "package_manager": "bower",
      "path": "bower.json",
      "licenses": [
        "MIT"
      ]
    },
    {
      "name": "stimulus.umd",
      "version": "*",
      "package_manager": "bower",
      "path": "bower.json",
      "licenses": [
        "unknown"
      ]
    }
  ]
}
